{
    "Archer Hasnbany": {
        "gitlab_name": ["Archer Hasnbany"]
    },
    "Ethan Tan": {
        "gitlab_name": ["Ethan Tan"]
    },
    "Robyn Fajardo": {
        "gitlab_name": ["Robyn Fajardo"]
    },
    "Shamira Kabir": {
        "gitlab_name": ["Shamira Kabir"]
    },
    "Thomas Norman": {
        "gitlab_name": ["Thomas Norman"]
    }
}